{
	// Place your snippets for plantuml here. Each snippet is defined under a snippet name and has a prefix, body and 
	// description. The prefix is what is used to trigger the snippet and the body will be expanded and inserted. Possible variables are:
	// $1, $2 for tab stops, $0 for the final cursor position, and ${1:label}, ${2:another} for placeholders. Placeholders with the 
	// same ids are connected.
	// Example:
	// "Print to console": {
	// 	"prefix": "log",
	// 	"body": [
	// 		"console.log('$1');",
	// 		"$2"
	// 	],
	// 	"description": "Log output to console"
	// }
	"Entity Relation Diagram Settings" : {
		"prefix": "erd",
		"body" :[
			"!include https://raw.githubusercontent.com/ptrkcsk/one-dark-plantuml-theme/v1.0.0/theme.puml",
			"hide circle",
			"hide methods",
			"hide stereotypes",
			"skinparam linetype ortho"
		],
		"description": "Preferred settings for ERDs"
	},
	"Inline comment": {
		"prefix": "/'",
		"body": ["/' $0 '/"],
		"description": "creates an inline comment"
	},
	"block comment": {
		"prefix": "/''",
		"body": ["/'"," $0"," '/"],
		"description": "creates an block comment"
	},
	"Foreign Key": {
		"prefix": "FK",
		"body": ["**FK** $1 /' -> $0 '/"],
		"description": "Creates a Foreign Key"
	},
	"Primary Key": {
		"prefix": "PK",
		"body": ["**PK** $0"],
		"description": "Creates a primary Key"
	}
}